{
  "data": {
    "locations": [
      {
        "name": "Eiffel Tower",
        "coordinates": {
          "lat": 21.12,
          "lon": 19.56
        }
      },
      {
        "name": "Statue of Liberty",
        "coordinates": {
          "lat": 40.68,
          "lon": 74.04
        }
      }
    ]
  },
  "success": true
}